Player Retention Analytics • retention
…
Simulate release dates for builds.

builds <- builds %>% set_build_releases(release_length_max = 7)

builds

## # A tibble: 57 × 4
##    build release_length release_start release_end
##    <chr>          <int> <date>        <date>     
##  1 0.0.0              2 2023-01-07    2023-01-08 
##  2 0.0.1              2 2023-01-09    2023-01-10 
##  3 0.0.2              2 2023-01-11    2023-01-12 
##  4 0.1.0              6 2023-01-13    2023-01-18 
##  5 0.1.1              5 2023-01-19    2023-01-23 
##  6 0.1.2              6 2023-01-24    2023-01-29 
##  7 0.1.3              4 2023-01-30    2023-02-02 
##  8 0.2.0              1 2023-02-03    2023-02-03 
##  9 0.3.0              4 2023-02-04    2023-02-07 
## 10 0.3.1              1 2023-02-08    2023-02-08 
## # ℹ 47 more rows

Simulate users for builds.

users <- get_users(
    builds, 
    new_users_max = 3, 
    max_activity_days = 14)

users

## # A tibble: 90 × 4
##    user    first_build activity_start activity_days
##    <chr>   <chr>       <date>                 <int>
##  1 user_1  0.0.0       2023-01-08                 8
##  2 user_2  0.0.0       2023-01-08                12
##  3 user_3  0.0.0       2023-01-07                12
##  4 user_4  0.0.1       2023-01-09                 4
##  5 user_5  0.0.1       2023-01-10                14
##  6 user_6  0.0.2       2023-01-11                11
##  7 user_7  0.0.2       2023-01-11                 2
##  8 user_8  0.1.1       2023-01-20                 5
##  9 user_9  0.1.1       2023-01-23                 3
## 10 user_10 0.1.1       2023-01-23                12
## # ℹ 80 more rows

Simulate activity.

user_activity_data <- get_activity(builds, users) %>% 
  dplyr::filter(active_on_date == TRUE)

head(user_activity_data, 50)

## # A tibble: 50 × 8
##    user    first_build activity_start activity_days build activity_date
##    <chr>   <chr>       <date>                 <int> <chr> <date>       
##  1 user_1  0.0.0       2023-01-08                 8 0.0.0 2023-01-08   
##  2 user_1  0.0.0       2023-01-08                 8 0.0.1 2023-01-09   
##  3 user_1  0.0.0       2023-01-08                 8 0.0.2 2023-01-12   
##  4 user_10 0.1.1       2023-01-23                12 0.1.1 2023-01-23   
##  5 user_10 0.1.1       2023-01-23                12 0.1.2 2023-01-25   
##  6 user_10 0.1.1       2023-01-23                12 0.1.2 2023-01-26   
##  7 user_11 0.1.2       2023-01-28                13 0.1.2 2023-01-28   
##  8 user_11 0.1.2       2023-01-28                13 0.1.2 2023-01-29   
##  9 user_11 0.1.2       2023-01-28                13 0.1.3 2023-02-02   
## 10 user_12 0.1.2       2023-01-27                12 0.1.2 2023-01-27   
## # ℹ 40 more rows
## # ℹ 2 more variables: days_from_start <drtn>, active_on_date <lgl>
…
