…
Simulate release dates for builds.

    builds <- builds %>% set_build_releases(release_length_max = 7)

    builds

    ## # A tibble: 57 × 4
    ##    build release_length release_start release_end
    ##    <chr>          <int> <date>        <date>     
    ##  1 0.0.0              7 2023-01-07    2023-01-13 
    ##  2 0.0.1              7 2023-01-14    2023-01-20 
    ##  3 0.0.2              1 2023-01-21    2023-01-21 
    ##  4 0.1.0              7 2023-01-22    2023-01-28 
    ##  5 0.1.1              7 2023-01-29    2023-02-04 
    ##  6 0.1.2              4 2023-02-05    2023-02-08 
    ##  7 0.1.3              3 2023-02-09    2023-02-11 
    ##  8 0.2.0              2 2023-02-12    2023-02-13 
    ##  9 0.3.0              2 2023-02-14    2023-02-15 
    ## 10 0.3.1              7 2023-02-16    2023-02-22 
    ## # ℹ 47 more rows

Simulate users for builds.

    users <- get_users(
        builds, 
        new_users_max = 3, 
        max_activity_days = 14)

    users

    ## # A tibble: 91 × 4
    ##    user    first_build activity_start activity_days
    ##    <chr>   <chr>       <date>                 <int>
    ##  1 user_1  0.0.1       2023-01-16                 8
    ##  2 user_2  0.0.2       2023-01-21                 2
    ##  3 user_3  0.0.2       2023-01-21                12
    ##  4 user_4  0.0.2       2023-01-21                12
    ##  5 user_5  0.1.3       2023-02-10                 5
    ##  6 user_6  0.1.3       2023-02-10                 6
    ##  7 user_7  0.1.3       2023-02-10                 5
    ##  8 user_8  0.2.0       2023-02-13                 5
    ##  9 user_9  0.3.0       2023-02-15                 5
    ## 10 user_10 0.3.0       2023-02-15                 1
    ## # ℹ 81 more rows

Simulate activity.

    user_activity_data <- get_activity(builds, users) %>% 
      dplyr::filter(active_on_date == TRUE)

    head(user_activity_data, 50)

    ## # A tibble: 50 × 8
    ##    user    first_build activity_start activity_days build activity_date
    ##    <chr>   <chr>       <date>                 <int> <chr> <date>       
    ##  1 user_1  0.0.1       2023-01-16                 8 0.0.1 2023-01-16   
    ##  2 user_10 0.3.0       2023-02-15                 1 0.3.0 2023-02-15   
    ##  3 user_10 0.3.0       2023-02-15                 1 0.3.1 2023-02-16   
    ##  4 user_11 0.3.0       2023-02-15                 2 0.3.0 2023-02-15   
    ##  5 user_11 0.3.0       2023-02-15                 2 0.3.1 2023-02-16   
    ##  6 user_12 1.1.0       2023-02-24                 3 1.1.0 2023-02-24   
    ##  7 user_13 1.1.0       2023-02-25                 2 1.1.0 2023-02-25   
    ##  8 user_14 1.1.0       2023-02-24                12 1.1.0 2023-02-24   
    ##  9 user_14 1.1.0       2023-02-24                12 1.1.1 2023-02-28   
    ## 10 user_14 1.1.0       2023-02-24                12 1.1.2 2023-03-03   
    ## # ℹ 40 more rows
    ## # ℹ 2 more variables: days_from_start <drtn>, active_on_date <lgl>
…
